Assignment 04: Data Wrangling with dplyr
…
bird_obs_subset <- bird_obs_subset %>%
  filter(park_name %in% c("Lindo", "Orme", "Palomino", "Sonrisa"))

Step 6: Summarize data

bird_summary <- bird_obs_subset %>%
  group_by(park_name, survey_month) %>%
  summarize(
    total_birds = sum(bird_count, na.rm = TRUE),
    .groups = "drop"
  )

bird_summary

# A tibble: 27 × 3
   park_name survey_month total_birds
   <chr>     <ord>              <dbl>
 1 Lindo     Jan                  394
 2 Lindo     Mar                 2316
 3 Lindo     Jun                 2187
 4 Lindo     Sep                 4688
 5 Lindo     Oct                  529
 6 Lindo     Dec                 1948
 7 Lindo     <NA>                   0
 8 Orme      Jan                  439
 9 Orme      Mar                 1928
10 Orme      Jun                 2355
# ℹ 17 more rows
…
